<?xml version="1.0" encoding="UTF-8"?>
<svg width="102px" height="102px" viewBox="0 0 102 102" version="1.1" xmlns="http://www.w3.org/2000/svg" xmlns:xlink="http://www.w3.org/1999/xlink">
    <!-- Generator: Sketch 48.2 (47327) - http://www.bohemiancoding.com/sketch -->
    <title>mnfr-logo-icn</title>
    <desc>Created with Sketch.</desc>
    <defs></defs>
    <g id="Phase1" stroke="none" stroke-width="1" fill="none" fill-rule="evenodd" transform="translate(-117.000000, -248.000000)">
        <g id="mnfr-logo-icn" transform="translate(118.000000, 249.000000)">
            <circle id="Oval" stroke="#FFFFFF" fill="#FFFFFF" cx="50" cy="50" r="50"></circle>
            <g id="molecule-40" transform="translate(29.000000, 28.000000)" fill="#04BCA6" fill-rule="nonzero">
                <path d="M7.1,21.5 C7.3,21.8 7.6,22 8,22 L20,22 C20.4,22 20.7,21.8 20.9,21.5 L26.9,11.5 C27.1,11.2 27.1,10.8 26.9,10.5 L20.9,0.5 C20.7,0.2 20.4,0 20,0 L8,0 C7.6,0 7.3,0.2 7.1,0.5 L1.1,10.5 C0.9,10.8 0.9,11.2 1.1,11.5 L7.1,21.5 Z" id="Shape"></path>
                <path d="M20.9,24.5 C20.7,24.2 20.4,24 20,24 L8,24 C7.6,24 7.3,24.2 7.1,24.5 L1.1,34.5 C0.9,34.8 0.9,35.2 1.1,35.5 L7.1,45.5 C7.3,45.8 7.6,46 8,46 L20,46 C20.4,46 20.7,45.8 20.9,45.5 L26.9,35.5 C27.1,35.2 27.1,34.8 26.9,34.5 L20.9,24.5 Z" id="Shape"></path>
                <path d="M46.9,22.5 L40.9,12.5 C40.7,12.2 40.4,12 40,12 L29.5,12 C29.1,12 28.8,12.2 28.6,12.5 L22.6,22.5 C22.4,22.8 22.4,23.2 22.6,23.5 L28.6,33.5 C28.8,33.8 29.1,34 29.5,34 L40,34 C40.4,34 40.7,33.8 40.9,33.5 L46.9,23.5 C47,23.2 47,22.8 46.9,22.5 Z" id="Shape"></path>
            </g>
        </g>
    </g>
</svg>