<?xml version="1.0" encoding="utf-8"?>
<!-- Generator: Adobe Illustrator 23.0.2, SVG Export Plug-In . SVG Version: 6.00 Build 0)  -->
<svg version="1.1" id="Layer_1" xmlns="http://www.w3.org/2000/svg" xmlns:xlink="http://www.w3.org/1999/xlink" x="0px" y="0px"
	 viewBox="0 0 781 219.4" style="enable-background:new 0 0 781 219.4;" xml:space="preserve">
<style type="text/css">
	.st0{fill:#12B9A9;}
	.st1{fill:#3A495A;}
</style>
<path id="XMLID_8_" class="st0" d="M300.9,172.3c-1.9-5.3-9.3-6.1-9.3-6.1h-39L231,108.5c-9.8-11.3-18.2,0-18.2,0l-15.7,36.1
	L160.6,8.2c-0.2-1.5-1.9-4.2-1.9-4.2s-3.6-4.3-9.1-4c-5.5,0.4-8.9,5.7-8.9,5.7l-30.3,153.6c0,0-18.2-71.7-19.5-77.2S88.8,76,88.8,76
	s-1.9-5.1-8.7-5.5c-6.8-0.4-10,6.4-10,6.4l-15.7,40.5l-40.3,0.2c-9.8,1.9-9.6,10.8-9.6,10.8c1.1,10,9.5,10.2,9.5,10.2l44.8,0.2
	c10.2,1.3,13.6-7.4,13.6-7.4l5.5-14.9l22.8,91.1c2.4,12.8,11.8,11.8,11.8,11.8c9.5,0,10.6-11.5,10.6-11.5l14.2-75.3h34.2l12.5,46.7
	c1.5,8.9,9.5,8.7,9.5,8.7c7.4,1.1,10.6-4.9,10.6-4.9l17.4-40.1c0,0,10.5,29.3,13,37.1s10.8,7.9,10.8,7.9h45.8c7-0.2,9.8-5.5,9.8-5.5
	C303.4,175.7,300.9,172.3,300.9,172.3z M141.5,111.2l9.8-53.3l15.1,53.3H141.5z"/>
<g id="XMLID_1_">
	<path class="st1" d="M359.3,39.8h14.6v58h-14.6v-6.2c-2.9,2.7-5.7,4.7-8.6,5.8c-2.9,1.2-6,1.8-9.3,1.8c-7.5,0-14-2.9-19.5-8.7
		c-5.4-5.8-8.2-13-8.2-21.7c0-9,2.7-16.3,7.9-22.1c5.3-5.7,11.7-8.6,19.3-8.6c3.5,0,6.7,0.6,9.8,1.9c3,1.3,5.9,3.3,8.5,5.9V39.8
		L359.3,39.8z M344,51.8c-4.5,0-8.2,1.6-11.2,4.8c-3,3.2-4.5,7.3-4.5,12.3s1.5,9.1,4.5,12.4c3,3.2,6.7,4.9,11.2,4.9
		c4.5,0,8.4-1.6,11.4-4.8c3-3.2,4.5-7.3,4.5-12.5c0-5.1-1.5-9.1-4.5-12.3C352.4,53.4,348.6,51.8,344,51.8z"/>
	<path class="st1" d="M380.4,39.8h14.7v28c0,5.4,0.4,9.2,1.1,11.4c0.8,2.1,1.9,3.8,3.6,4.9c1.7,1.2,3.7,1.8,6.1,1.8s4.5-0.6,6.2-1.8
		c1.7-1.2,2.9-2.9,3.8-5.1c0.6-1.7,0.9-5.3,0.9-10.7V39.8h14.6v24.6c0,10.1-0.8,17.1-2.4,20.8c-1.9,4.5-4.9,8-8.6,10.5
		c-3.8,2.5-8.6,3.6-14.5,3.6c-6.4,0-11.5-1.4-15.4-4.3s-6.7-6.8-8.3-11.9c-1.2-3.5-1.7-9.9-1.7-19.2L380.4,39.8L380.4,39.8z"/>
	<path class="st1" d="M437.7,39.8h14.6v6.7c2.5-2.7,5.3-4.8,8.3-6.2c3-1.4,6.4-2,9.9-2c3.6,0,6.9,0.9,9.8,2.7
		c2.9,1.8,5.3,4.3,7.1,7.8c2.3-3.4,5.1-6,8.5-7.8c3.4-1.8,7.1-2.7,11-2.7c4.2,0,7.8,1,10.9,2.9c3.1,1.9,5.4,4.4,6.7,7.5
		c1.4,3.1,2.1,8.1,2.1,15.1v34.1H512V68.4c0-6.6-0.8-11-2.5-13.4s-4.1-3.5-7.3-3.5c-2.5,0-4.7,0.7-6.7,2.1c-1.9,1.4-3.4,3.4-4.4,5.9
		c-1,2.5-1.4,6.6-1.4,12.1v26.2H475V69.8c0-5.2-0.4-9-1.2-11.3s-1.9-4.1-3.4-5.2c-1.6-1.2-3.4-1.7-5.6-1.7c-2.4,0-4.6,0.7-6.6,2.1
		c-2,1.4-3.4,3.4-4.4,6c-1,2.6-1.5,6.7-1.5,12.3v25.8h-14.6L437.7,39.8L437.7,39.8z"/>
	<path class="st1" d="M590.4,73.1h-46.8c0.6,4.2,2.5,7.4,5.4,9.9c2.9,2.5,6.7,3.6,11.2,3.6c5.4,0,10.1-1.9,14-5.7l12.3,5.8
		c-3,4.3-6.7,7.5-11,9.6c-4.3,2.1-9.3,3.1-15.2,3.1c-9.1,0-16.5-2.9-22.2-8.6c-5.7-5.8-8.6-12.9-8.6-21.6c0-8.9,2.9-16.2,8.6-22.1
		s12.8-8.8,21.5-8.8c9.1,0,16.5,2.9,22.3,8.8c5.7,5.8,8.6,13.6,8.6,23.2V73.1z M575.9,61.6c-1-3.2-2.9-5.8-5.7-7.9
		c-2.9-2-6.1-3-9.9-3c-4.1,0-7.7,1.2-10.7,3.4c-1.9,1.4-3.7,4-5.3,7.5L575.9,61.6L575.9,61.6z"/>
	<path class="st1" d="M595.8,18.4h14.6v21.4h8.6v12.5h-8.6v45.5h-14.6V52.3h-7.5V39.8h7.5V18.4z"/>
</g>
<g>
	<path class="st1" d="M359.1,190.5v-9.6h-0.3c-2.6,3.7-5.2,6.5-7.9,8.1c-2.7,1.7-5.9,2.5-9.9,2.5c-6.6,0-12.2-2.8-16.8-8.5
		c-4.6-5.7-6.9-12.5-6.9-20.6c0-8,2.5-14.9,7.4-20.6c4.9-5.7,10.8-8.6,17.5-8.6c3.2,0,6.1,0.7,8.7,2.2c2.6,1.4,5.3,3.7,8.2,6.9v-7.8
		h16.7v56H359.1z M346.8,150c-3.3,0-6.1,1.3-8.3,4c-2.2,2.6-3.3,6-3.3,10c0,3.7,1.1,6.8,3.2,9c2.1,2.3,4.9,3.4,8.3,3.4
		c3.3,0,6.1-1.3,8.5-4c2.4-2.6,3.5-5.8,3.5-9.6c0-3.5-1.2-6.5-3.5-9C352.8,151.3,350,150,346.8,150z"/>
	<path class="st1" d="M419.8,103.4h16.8v87.2h-16.5v-9.6h-0.3c-4.9,7-10.9,10.5-18.1,10.5c-6.4,0-11.9-2.8-16.5-8.4
		s-6.8-12.5-6.8-20.6c0-8.1,2.3-15,7-20.7c4.7-5.7,10.3-8.6,16.9-8.6c3.7,0,6.9,0.7,9.5,2.1s5.2,3.6,7.9,6.7V103.4z M407.5,149.7
		c-2.7,0-5.3,1.3-7.7,3.8c-2.4,2.5-3.6,5.9-3.6,10.3c0,3.4,1.1,6.4,3.2,8.8c2.1,2.4,4.7,3.7,7.7,3.7c3.6,0,6.5-1.3,8.9-4
		c2.4-2.6,3.6-5.9,3.6-9.8c0-3.4-1.2-6.4-3.5-8.9S410.8,149.7,407.5,149.7z"/>
	<path class="st1" d="M461.2,134.4v8.9c0.8-0.5,1.9-1.5,3.5-3c1.5-1.5,3-2.7,4.4-3.8c1.4-1,3.1-1.8,5.1-2.5c2-0.6,3.8-0.9,5.4-0.9
		c2.6,0,5.4,0.9,8.4,2.7s5.5,5,7.5,9.6c3.5-4.4,6.9-7.6,10.2-9.5c3.3-1.9,6.4-2.8,9.3-2.8c5.1,0,9.4,2.1,12.9,6.3
		c3.5,4.2,5.3,9.4,5.3,15.5v35.6h-16.7v-31.1c0-3.1-0.8-5.7-2.5-7.8c-1.7-2.1-3.7-3.2-6.1-3.2c-2.9,0-5.4,1.2-7.4,3.6
		s-3.1,5.2-3.1,8.6v30h-16.6v-30.4c0-3.3-0.9-6-2.6-8.3c-1.7-2.2-3.8-3.4-6.2-3.4c-2.9,0-5.4,1.2-7.4,3.7c-2.1,2.5-3.1,5.4-3.1,8.8
		v29.5h-16.8v-56.2H461.2z"/>
	<path class="st1" d="M538.2,113.6c0-2.8,1-5.3,3.1-7.3c2-2.1,4.5-3.1,7.4-3.1s5.3,1,7.4,3.1c2,2.1,3.1,4.5,3.1,7.3
		c0,2.9-1,5.3-3.1,7.4c-2,2.1-4.5,3.1-7.4,3.1s-5.3-1-7.4-3.1C539.2,118.9,538.2,116.5,538.2,113.6z M540.4,134.4h16.7v56.2h-16.7
		V134.4z"/>
	<path class="st1" d="M582.5,134.4v6.7c5.7-5.4,11.7-8,18-8c5.4,0,9.8,2.2,13.3,6.6c3.5,4.4,5.3,10,5.3,16.8v34.1h-17v-31.4
		c0-3.2-0.9-5.9-2.6-8.2c-1.8-2.2-3.9-3.3-6.4-3.3c-3,0-5.6,1.4-7.5,4.2c-2,2.8-2.9,6.4-2.9,10.9v27.8h-16.7v-56.2H582.5z"/>
</g>
</svg>
